{
  "project_info": {
    "project_number": "39374189841",
    "firebase_url": "https://post-channel.firebaseio.com",
    "project_id": "post-channel",
    "storage_bucket": "post-channel.appspot.com"
  },
  "client": [
    {
      "client_info": {
        "mobilesdk_app_id": "1:39374189841:android:5691079c81aed0f1",
        "android_client_info": {
          "package_name": "com.app.channel"
        }
      },
      "oauth_client": [
        {
          "client_id": "39374189841-3q5ufcm2dus3t3lv7us553h984e5o789.apps.googleusercontent.com",
          "client_type": 3
        }
      ],
      "api_key": [
        {
          "current_key": "AIzaSyC32lwFi455tZpFCSsxUoWFEiibLfZYb-I"
        }
      ],
      "services": {
        "analytics_service": {
          "status": 1
        },
        "appinvite_service": {
          "status": 1,
          "other_platform_oauth_client": []
        },
        "ads_service": {
          "status": 2
        }
      }
    },
    {
      "client_info": {
        "mobilesdk_app_id": "1:39374189841:android:1364e140d65161da",
        "android_client_info": {
          "package_name": "com.app.womenproject"
        }
      },
      "oauth_client": [
        {
          "client_id": "39374189841-3q5ufcm2dus3t3lv7us553h984e5o789.apps.googleusercontent.com",
          "client_type": 3
        }
      ],
      "api_key": [
        {
          "current_key": "AIzaSyC32lwFi455tZpFCSsxUoWFEiibLfZYb-I"
        }
      ],
      "services": {
        "analytics_service": {
          "status": 1
        },
        "appinvite_service": {
          "status": 1,
          "other_platform_oauth_client": []
        },
        "ads_service": {
          "status": 2
        }
      }
    }
  ],
  "configuration_version": "1"
}